{
    "model": "ProgramCourses",
    "title": "Study program course",
    "subtitle": "Edit",
    "display": "form",
    "settings": {
        "i18n": {
            "el": {
                "Edit": "Επεξεργασία",
                "Study program course": "Μάθημα προγράμματος σπουδών",
                "General": "Γενικά",
                "Course": "Μάθημα",
                "Specialization": "Κατεύθυνση",
                "Type": "Τύπος",
                "Set course type according to rules and requirements of this study program.": "Ορίστε τον τύπο του μαθήματος σύμφωνα με τους κανόνες και τις προϋποθέσεις του προγράμματος σπουδών.",
                "Units": "Διδακτικές μονάδες",
                "Set course units. Course units will be used while validating degree requirements.": "Ορίστε τις διδακτικές μονάδες. Οι διδακτικές μονάδες ενός μαθήματος θα χρησιμοποιηθούν κατά τον έλεγχο προϋποθέσεων λήψης πτυχίου.",
                "ECTS": "ECTS",
                "Set ECTS units. Course ECTS will be used while validating degree requirements.": "Ορίστε τις μονάδες ECTS. Οι μονάδες ECTS ενός μαθήματος θα χρησιμοποιηθούν κατά τον έλεγχο προϋποθέσεων λήψης πτυχίου.",
                "Set course semester according to rules and requirements of this study program.": "Ορίστε το εξάμηνό του μαθήματος σύμφωνα με τους κανόνες και τις προϋποθέσεις του προγράμματος σπουδών."
            }
        }
    },
    "components": [
        {
            "type": "fieldset",
            "components": [
                {
                    "label": "HTML",
                    "tag": "h5",
                    "className": "font-weight-normal",
                    "content": "{{instance.t(form.subtitle)}}",
                    "refreshOnChange": false,
                    "tableView": false,
                    "key": "subtitle",
                    "type": "htmlelement",
                    "input": false
                },
                {
                    "columns": [
                        {
                            "components": [
                                {
                                    "label": "HTML",
                                    "tag": "div",
                                    "className": "form-group",
                                    "content": "<label class=\"col-form-label text-secondary\">{{instance.t('Course')}}</label><div class=\"form-control h-auto\">[{{ data.course && data.course.displayCode }}] {{ data.course && data.course.name }}</div>",
                                    "refreshOnChange": false,
                                    "tableView": false,
                                    "key": "courseTitle",
                                    "customConditional": "show = !!data.course",
                                    "type": "htmlelement",
                                    "input": false
                                },
                                {
                                    "label": "HTML",
                                    "tag": "div",
                                    "className": "form-group",
                                    "content": "<label class=\"col-form-label text-secondary\">{{instance.t('Specialization')}}</label><div class=\"form-control h-auto\">{{ data.studyProgramSpecialty && data.studyProgramSpecialty.name }}</div>",
                                    "refreshOnChange": false,
                                    "tableView": false,
                                    "key": "courseTitle",
                                    "customConditional": "show = !!data.course",
                                    "type": "htmlelement",
                                    "input": false
                                },
                                {
                                  "label": "Type",
                                  "labelPosition": "top",
                                  "widget": "choicesjs",
                                  "dataSrc": "url",
                                  "data": {
                                    "url": "CourseTypes?$top={{limit}}&$skip={{skip}}&$select=id,name&$filter=indexof(name, '{{encodeURIComponent(search||'')}}') ge 0&$orderby=name",
                                    "headers": []
                                  },
                                  "validate": {
                                    "required": true
                                  },
                                  "template": "<span class='col-4 text-truncate'>{{ item.name }}</span>",
                                  "searchEnabled": true,
                                  "searchThreshold": "0.3",
                                  "searchField": "search",
                                  "selectValues": "value",
                                  "key": "courseType",
                                  "limit": 15,
                                  "dataType": "object",
                                  "idPath": "id",
                                  "type": "select",
                                  "input": true,
                                  "lazyLoad": true,
                                  "description": "Set course type according to rules and requirements of this study program."
                                }
                            ],
                            "width": 6,
                            "offset": 0,
                            "push": 0,
                            "pull": 0
                        },
                        {
                            "components": [
                                {
                                    "label": "Semester",
                                    "labelPosition": "top",
                                    "widget": "choicesjs",
                                    "dataSrc": "url",
                                    "data": {
                                        "url": "Semesters?$orderby=id",
                                        "headers": []
                                    },
                                    "template": "<span class='col-4 text-truncate'>{{ item.name }}</span>",
                                    "selectValues": "value",
                                    "key": "semester",
                                    "searchEnabled": false,
                                    "type": "select",
                                    "input": true,
                                    "lazyLoad": false,
                                    "description": "Set course semester according to rules and requirements of this study program."
                                },
                                {
                                    "label": "Units",
                                    "mask": false,
                                    "spellcheck": true,
                                    "tableView": false,
                                    "delimiter": false,
                                    "requireDecimal": false,
                                    "inputFormat": "plain",
                                    "validate": {
                                        "unique": false,
                                        "multiple": false,
                                        "required": true
                                    },
                                    "key": "units",
                                    "type": "number",
                                    "input": true,
                                    "hideOnChildrenHidden": false,
                                    "description": "Set course units. Course units will be used while validating degree requirements."
                                },
                                {
                                    "label": "ECTS",
                                    "mask": false,
                                    "spellcheck": true,
                                    "tableView": false,
                                    "delimiter": false,
                                    "requireDecimal": false,
                                    "inputFormat": "plain",
                                    "validate": {
                                        "unique": false,
                                        "multiple": false,
                                        "required": true
                                    },
                                    "key": "ects",
                                    "type": "number",
                                    "input": true,
                                    "hideOnChildrenHidden": false,
                                    "description": "Set ECTS units. Course ECTS will be used while validating degree requirements."
                                }
                            ],
                            "width": 6,
                            "offset": 0,
                            "push": 0,
                            "pull": 0
                        }
                    ],
                    "hideLabel": true,
                    "type": "columns",
                    "input": false
                }
            ]
        },
        {
            "type": "button",
            "label": "Submit",
            "key": "submit",
            "theme":"indigo",
            "disableOnInvalid": true,
            "input": true,
            "tableView": false,
            "validate": {
                "unique": false,
                "multiple": false
            }
        }
    ]
}
