{
  "model": "StudentCounselors",
  "settings": {
    "i18n": {
      "el": {
        "Is active" : "Ενεργή",
        "Counselor": "Ακαδημαϊκός σύμβουλος",
        "Student": "Φοιτητής",
        "Counseling info": "Στοιχεία συμβουλευτικής",
        "Select the academic start year of the counseling": "Επιλέξτε το ακαδημαϊκό έτος έναρξης της συμβουλευτικής",
        "Select the academic start period of the counseling": "Επιλέξτε την περίοδο έναρξης της συμβουλευτικής",
        "Select the academic end year of the counseling": "Επιλέξτε το ακαδημαϊκό έτος λήξης της συμβουλευτικής",
        "Select the academic end period of the counseling": "Επιλέξτε την περίοδο λήξης της συμβουλευτικής",
        "Start year": "Έτος έναρξης",
        "Start period": "Περίοδος έναρξης",
        "End year": "Έτος λήξης",
        "End period": "Περίοδος λήξης"
      }
    }
  },
  "components": [
    {
      "customConditional": "show = (data.instructor)",
      "type": "fieldset",
      "legend": "Counseling info",
      "components": [
        {
          "columns": [
            {
              "components": [
                {
                  "label": "Counselor",
                  "key": "instructorFullName",
                  "calculateValue": "value = data.instructor.familyName + \" \" + data.instructor.givenName",
                  "customConditional": "show = (data.instructor)",
                  "labelPosition": "top",
                  "widget": {
                    "type": "input"
                  },
                  "validate": {
                    "required": false
                  },
                  "type": "textfield",
                  "input": true,
                  "disabled": true
                }
              ],
              "width": 6,
              "offset": 0,
              "push": 0,
              "pull": 0
            },
            {
              "components": [
                {
                  "label": "Student",
                  "customConditional": "show = (data.student)",
                  "calculateValue": "value =\" (\" + data.student.studentIdentifier + \") \" + data.student.person.familyName + \" \" + data.student.person.givenName",
                  "labelPosition": "top",
                  "widget": {
                    "type": "label"
                  },
                  "type": "textfield",
                  "input": false,
                  "disabled": true
                }
              ],
              "width": 6,
              "offset": 0,
              "push": 0,
              "pull": 0
            }
          ],
          "customClass": "text-dark",
          "hideLabel": true,
          "type": "columns",
          "input": false
        },
        {
          "columns": [
            {
              "components": [
                {
                  "label": "Start year",
                  "labelPosition": "top",
                  "dataSrc": "url",
                  "customConditional": "show = (data.student)",
                  "data": {
                    "url": "AcademicYears/?$top=100&$orderby=id desc&$filter=id ge {{data.student.inscriptionYear.id}}",
                    "headers": []
                  },
                  "validate": {
                    "required": true
                  },
                  "searchFields": ["id","name","alternateName"],
                  "template": "<span class='d-block pr-5 text-truncate'>{{ item.alternateName }}</span>",
                  "selectValues": "value",
                  "widget": "choicesjs",
                  "key": "fromYear",
                  "dataType": "object",
                  "idPath": "id",
                  "type": "select",
                  "input": true,
                  "searchEnabled": false,
                  "description": "Select the academic start year of the counseling"
                }
              ],
              "width": 4
            },
            {
              "components": [
                {
                  "label": "Start period",
                  "labelPosition": "top",
                  "dataSrc": "url",
                  "customConditional": "show = (data.student)",
                  "data": {
                    "url": "AcademicPeriods",
                    "headers": []
                  },
                  "validate": {
                    "required": true
                  },
                  "template": "<span class='d-block pr-5 text-truncate'>{{ item.name }}</span>",
                  "selectValues": "value",
                  "widget": "choicesjs",
                  "key": "fromPeriod",
                  "dataType": "object",
                  "idPath": "id",
                  "type": "select",
                  "input": true,
                  "searchEnabled": false,
                  "description": "Select the academic start period of the counseling"
                }
              ],
              "width": 4
            },
            {
              "components": [
                {
                  "label": "Start date",
                  "useLocaleSettings": true,
                  "tableView": false,
                  "enableMinDateInput": false,
                  "validate": {
                    "required": true
                  },
                  "datePicker": {
                    "disableWeekends": false,
                    "disableWeekdays": false
                  },
                  "enableMaxDateInput": false,
                  "enableTime": false,
                  "key": "startDate",
                  "type": "datetime",
                  "input": true,
                  "widget": {
                    "type": "calendar",
                    "displayInTimezone": "viewer",
                    "locale": "en",
                    "useLocaleSettings": true,
                    "allowInput": true,
                    "mode": "single",
                    "enableTime": false,
                    "noCalendar": false,
                    "format": "yyyy-MM-dd",
                    "hourIncrement": 1,
                    "minuteIncrement": 1,
                    "time_24hr": false,
                    "disableWeekends": false,
                    "disableWeekdays": false
                  }
                }
              ],
              "width": 4,
              "offset": 0,
              "push": 0,
              "pull": 0
            },
            {
              "components": [
                {
                  "label": "Is active",
                  "tableView": true,
                  "key": "active",
                  "type": "checkbox",
                  "input": true
                }
              ],
              "width": 12,
              "offset": 0,
              "push": 0,
              "pull": 0
            },
            {
              "components": [
                {
                  "label": "End year",
                  "labelPosition": "top",
                  "dataSrc": "url",
                  "data": {
                    "url": "AcademicYears/?$top=100&$orderby=id desc&$filter=id ge {{data.student.inscriptionYear.id}}",
                    "headers": []
                  },
                  "searchFields": ["id", "name"],
                  "template": "<span class='d-block pr-5 text-truncate'>{{ item.name }}</span>",
                  "selectValues": "value",
                  "key": "toYear.id",
                  "valueProperty": "id",
                  "type": "select",
                  "lazyLoad": false,
                  "input": true,
                  "description": "Select the academic end year of the counseling",
                  "logic": [
                    {
                      "name": "requiredLogic",
                      "trigger": {
                        "type": "simple",
                        "simple": {
                          "show": true,
                          "when": "active",
                          "eq": "false"
                        }
                      },
                      "actions": [
                        {
                          "name": "requiredAction",
                          "type": "property",
                          "property": {
                            "label": "Required",
                            "value": "validate.required",
                            "type": "boolean"
                          },
                          "state": true
                        }
                      ]
                    }
                  ]
                }
              ],
              "width": 4
            },
            {
              "components": [
                {
                  "label": "End period",
                  "labelPosition": "top",
                  "dataSrc": "url",
                  "data": {
                    "url": "AcademicPeriods",
                    "headers": []
                  },
                  "searchFields": ["id", "name"],
                  "template": "<span class='d-block pr-5 text-truncate'>{{ item.name }}</span>",
                  "selectValues": "value",
                  "key": "toPeriod.id",
                  "valueProperty": "id",
                  "type": "select",
                  "lazyLoad": false,
                  "input": true,
                  "description": "Select the academic end period of the counseling",
                  "logic": [
                    {
                      "name": "requiredLogic",
                      "trigger": {
                        "type": "simple",
                        "simple": {
                          "show": true,
                          "when": "active",
                          "eq": "false"
                        }
                      },
                      "actions": [
                        {
                          "name": "requiredAction",
                          "type": "property",
                          "property": {
                            "label": "Required",
                            "value": "validate.required",
                            "type": "boolean"
                          },
                          "state": true
                        }
                      ]
                    }
                  ]
                }

              ],
              "width": 4
            },
            {
              "components": [
                {
                  "label": "End date",
                  "useLocaleSettings": true,
                  "tableView": false,
                  "enableMinDateInput": false,
                  "datePicker": {
                    "disableWeekends": false,
                    "disableWeekdays": false
                  },
                  "enableMaxDateInput": false,
                  "enableTime": false,
                  "key": "endDate",
                  "type": "datetime",
                  "input": true,
                  "widget": {
                    "type": "calendar",
                    "displayInTimezone": "viewer",
                    "locale": "en",
                    "useLocaleSettings": true,
                    "allowInput": true,
                    "mode": "single",
                    "enableTime": false,
                    "noCalendar": false,
                    "format": "yyyy-MM-dd",
                    "hourIncrement": 1,
                    "minuteIncrement": 1,
                    "time_24hr": false,
                    "disableWeekends": false,
                    "disableWeekdays": false
                  },
                  "logic": [
                    {
                      "name": "requiredLogic",
                      "trigger": {
                        "type": "simple",
                        "simple": {
                          "show": true,
                          "when": "active",
                          "eq": "false"
                        }
                      },
                      "actions": [
                        {
                          "name": "requiredAction",
                          "type": "property",
                          "property": {
                            "label": "Required",
                            "value": "validate.required",
                            "type": "boolean"
                          },
                          "state": true
                        }
                      ]
                    }
                  ]
                }
              ],
              "width": 4,
              "offset": 0,
              "push": 0,
              "pull": 0
            },
            {
              "components": [
                {
                  "label": "Notes",
                  "labelPosition": "top",
                  "widget": {
                    "type": "input"
                  },
                  "validate": {
                    "required": false
                  },
                  "key": "notes",
                  "type": "textarea",
                  "input": true
                }
              ],
              "width": 12
            }
          ],
          "customClass": "text-dark",
          "hideLabel": true,
          "type": "columns",
          "input": false
        }
      ]
    },
    {
      "type": "button",
      "label": "Submit",
      "key": "submit",
      "disableOnInvalid": true,
      "input": true
    }
  ]
}
