{
	"model": "LocalDepartments",
	"settings": {
		"i18n": {
			"el": {
				"Other properties": "Άλλες ιδιότητες",
				"Exam period participation settings": "Ρυθμίσεις αιτήσεων συμμετοχής σε εξετάσεις",
				"Set the current year for exam participation applications": "Ορίστε το ακαδημαϊκό έτος για την αποδοχή αιτήσεων συμμετοχής σε εξετάσεις",
				"Set the current period for exam participation applications": "Ορίστε την εξεταστική περίοδο για την αποδοχή αιτήσεων συμμετοχής σε εξετάσεις",
				"Valid from": "Έναρξη περιόδου αιτήσεων",
				"Set the start date of accepting applications for exam participations": "Ορίστε την ημερομηνία έναρξης αποδοχής των αιτήσεων",
				"Valid to": "Λήξη περιόδου αιτήσεων",
				"Set the end date of the period that department will accept applications for exam participations": "Ορίστε την ημερομηνία λήξης της περιόδου αποδοχής των αιτήσεων",
				"Exam year": "Ακαδημαϊκό έτος εξεταστικής περιόδου",
				"Exam period": "Εξεταστική περιόδος",
				"Alternative code": "Εναλλακτικός κωδικός",
				"Abbreviation": "Συντομογραφία",
				"Current Academic Year": "Τρέχον ακαδημαϊκό έτος",
				"Current Academic Period": "Τρέχουσα ακαδημαϊκή περίοδος",
				"Current academic year and period": "Τρέχον ακαδημαϊκό έτος και περίοδος",
				"Check semester rules of study program": "Έλεγχος προϋποθέσεων εξαμήνου προγράμματος σπουδών",
				"Check semester rules of study program during course registration": "Έλεγχος προϋποθέσεων εξαμήνου προγράμματος σπουδών κατά τη δήλωση μαθημάτων",
				"Check custom rules":"Έλεγχος ειδικών προϋποθέσεων",
				"Check custom requirements that consider custom rules that apply for the department":"Έλεγχος ειδικών προϋποθέσεων που αφορούν ειδικούς κανόνες που ισχύουν για το τμήμα",
				"Edit the department's full name.": "Ορίστε το όνομα του τμήματος.",
				"Edit the name of the faculty this department belongs to.": "Ορίστε το όνομα της σχολής στην οποία ανήκει το τμήμα αυτό.",
				"This is the abbreviation of the department's name. It should contain up to 20 characters": "Αυτή είναι η συντομογραφία του ονόματος του τμήματος. Πρέπει να περιέχει έως 20 χαρακτήρες.",
				"Edit the number of the total semesters in this department. The value cannot be greater than 14.": "Ορίστε τον αριθμό των συνολικών εξαμήνων του τμήματος. Η τιμή δεν μπορεί να ξεπερνάει το 14.",
				"Select the study level this department offers.": "Ορίστε το επίπεδο σπουδών που προσφέρει το τμήμα.",
				"Edit the full name of the contact person of this department.": "Ορίστε το ονοματεπώνυμο του υπεύθυνου επικοινωνίας του τμήματος αυτού.",
				"If there is an alternative contact person in this department, Edit the name here. If not, leave this blank. It is an optional field.": "Εάν υπάρχει εναλλακτικός υπεύθυνος επικοινωνίας τμήματος, Ορίστε το ονοματεπώνυμο του εδώ. Εάν όχι, αφήστε το κενό. Το πεδίο είναι προαιρετικό.",
				"Edit the phone number of this department. Note that it must contain the country code": "Ορίστε το σταθερό τηλέφωνο του τμήματος αυτού. Πρέπει να περιέχει τον κωδικό χώρας.",
				"If there is an alternate phone number in this department, input it here. Note that it must contain the country code": "Εάν υπάρχει εναλλακτικό σταθερό τμήματος, πληκτρολογήστε το εδώ. Σημειώστε ότι πρέπει να περιέχειτον κωδικό χώρας.",
				"This should have a valid email format eg. user@example.com": "Πρέπει να έχει μια έγκυρη μορφή ηλεκτρονικού ταχυδρομείου π.χ. user@example.com",
				"If checked, students may be able to submit course registrations.": "Εάν επιλεχθεί, οι φοιτητές θα μπορούν να υποβάλουν δηλώσεις μαθημάτων.",
				"If checked, students will be able to make changes to their already submitted registrations in case of an open registration period.": "Εάν επιλεχθεί, οι φοιτητές θα μπορούν να επεξεργαστούν την ήδη υποβεβλημμένη δήλωση μαθημάτων σε περίπτωση που είναι ανοιχτή η περίοδος δηλώσεων.",
				"Edit the full date the course registration period starts. Note that course registrations will begin on the day you selected at 09:00 am.": "Ορίστε την πλήρη ημερομηνία έναρξης των δηλώσεων μαθημάτων. Σημειώστε ότι οι δηλώσεις θα ξεκινήσουν στις 09:00πμ την ημέρα που θα επιλέξετε",
				"Edit the full date the course registration period ends.": "Ορίστε την πλήρη καταληκτική ημερομηνία δηλώσεων μαθημάτων",
				"Add some notes for the course registration. They should be registration guidelines for the students to read, or anything you want to clarify on the registration period or process": "Προσθέστε μερικές σημειώσεις για τις δηλώσεις μαθήματων. Πρέπει να περιέχει οδηγίες για να διαβάσουν οι φοιτητές ή οτιδήποτε θέλετε να διευκρυνίσετε για την περίοδο δηλώσεων μαθημάτων ή την διαδικασία.",
				"Identifier and graduation number calculation settings": "Ρυθμίσεις υπολογισμού Αριθμών Μητρώων και Αριθμού Πτυχίου",
				"Student identifier format": "Μορφοποίηση ΑΕΜ",
				"Student unique identifier format": "Μορφοποίηση ΑΠΜ",
				"Student identifier index": "Τελευταίος αριθμός ΑΕΜ",
				"Student unique identifier index": "Τελευταίος αριθμός ΑΠΜ",
				"The student identifier index is very often used in combination with the student identifier format for a new identifier calculation. This number is automatically incremented every time a new identifier is created.": "Για τον υπολογισμό ενός νέου ΑΕΜ, πολλές φορές χρησιμοποιείται ο τελευταίος αριθμός σε συνδυασμό με τη μορφοποίηση. Ο αριθμός αυτός αυξάνεται αυτόματα, μετά την παραγωγή κάποιου νέου ΑΕΜ.",
				"The student unique identifier index can be used in combination with the student unique identifier format for a new identifier calculation. This number, if it is defined, is automatically incremented every time a new unique identifier is created.": "Για τον υπολογισμό ενός νέου ΑΠΜ, μπορεί να χρησιμοποιηθεί ο τελευταίος αριθμός σε συνδυασμό με τη μορφοποίηση. Ο αριθμός αυτός-όταν έχει οριστεί-αυξάνεται αυτόματα, μετά την παραγωγή κάποιου νέου ΑΠΜ.",
				"The format should contain one or more available format elements, separated by \";\". After each format element, a text or a number can be inserted, if the element supports it. (e.g. I000)": "Η μορφοποίηση θα πρέπει να περιέχει ένα η περισσότερα διαθέσιμα στοιχεία μορφοποίησης, χωρισμένα με \";\". Μετά από κάθε στοιχείο, μπορεί να εισαχθεί κείμενο ή αριθμός, όταν αυτό τα υποστηρίζει (πχ I000).",
				"The format should contain one or more available format elements, separated by \";\". After each format element, a text or a number can be inserted, if the element supports it. (e.g. T12311;R10;M10)": "Η μορφοποίηση θα πρέπει να περιέχει ένα η περισσότερα διαθέσιμα στοιχεία μορφοποίησης, χωρισμένα με \";\". Μετά από κάθε στοιχείο, μπορεί να εισαχθεί κείμενο ή αριθμός, όταν αυτό τα υποστηρίζει (πχ T12311;R10;M10).",
				"Other department name": "Άλλη ονομασία τμήματος",
				"Edit the department's other name.": "Ορίστε μια άλλη/επιπλέον ονομασία για το τμήμα.",
				"Alternative faculty name": "Εναλλακτική ονομασία σχολής",
				"Edit the department's faculty alternative name.": "Ορίστε μια εναλλακτική ονομασία για τη σχολή στην οποία ανήκει το τμήμα (πχ η ονομασία στη γενική, για χρήση στις αναφορές).",
				"Alternative department name": "Εναλλακτική ονομασία τμήματος",
				"Edit the department's alternative name.": "Ορίστε μια εναλλακτική ονομασία για το τμήμα (πχ η ονομασία στη γενική, για χρήση στις αναφορές).",
				"Edit the department's city.": "Ορίστε την πόλη στην οποία εδρεύει το τμήμα.",
				"Edit the department's address.": "Ορίστε την ταχυδρομική διεύθυνση του τμήματος.",
				"Edit the department's postal code.": "Ορίστε τον ταχυδρομικό κώδικα του τμήματος.",
				"Allow specialty selection": "Επιλογή κατεύθυνσης φοιτητή",
				"If checked, students may be able to select a specialty, if their study program allows it.": "Εαν επιλεχθεί, οι φοιτητές θα μπορούν να επιλέξουν την κατεύθυνσή τους, εφόσον το πρόγραμμα σπουδών τους το επιτρέπει.",
				"Grade submissions settings": "Ρυθμίσεις υποβολών βαθμολογίας",
				"Grade submission period start": "Έναρξη περιόδου υποβολών βαθμολογίας",
				"Grade submission period end": "Λήξη περιόδου υποβολών βαθμολογίας",
				"Set the start date of the grade submissions period": "Ορίστε την ημερομηνία έναρξης της περιόδου των υποβολών βαθμολογίας",
				"Set the end date of the grade submissions period": "Ορίστε την ημερομηνία λήξης της περιόδου των υποβολών βαθμολογίας",
				"Student username format": "Μορφοποίηση ονομάτων χρηστών φοιτητών",
				"The format should contain one or more available format elements, separated by \";\". After each format element, a text or a number can be inserted, if the element supports it. (e.g. F4;G4)": "Η μορφοποίηση θα πρέπει να περιέχει ένα η περισσότερα διαθέσιμα στοιχεία μορφοποίησης, χωρισμένα με \";\". Μετά από κάθε στοιχείο, μπορεί να εισαχθεί κείμενο ή αριθμός, όταν αυτό τα υποστηρίζει (πχ G4;F4).",
				"Student username index": "Τελευταίος αριθμός ονόματος χρήστη φοιτητή",
				"The student username index can be used in combination with the student username format for a new identifier calculation. This number, if it is defined, is automatically incremented every time a new student username is created.": "Για τη δημιουργία ενός νέου ονόματος χρήστη, μπορεί να χρησιμοποιηθεί ο τελευταίος αριθμός σε συνδυασμό με τη μορφοποίηση. Ο αριθμός αυτός αυξάνεται αυτόματα, μετά την δημιουργία κάποιου νέου ονόματος χρήστη.",
				"Instructor username format": "Μορφοποίηση ονομάτων χρηστών διδασκόντων",
				"Available student username format elements...": "Διαθέσιμα στοιχεία μορφοποίησης ον. χρ. φοιτητών...",
				"Available instructor username format elements...": "Διαθέσιμα στοιχεία μορφοποίησης ον. χρ. διδασκόντων...",
				"The format cannot contain spaces.": "Η μορφοποίηση δεν πρέπει να περιέχει κενά.",
				"User creation settings": "Ρυθμίσεις δημιουργίας χρηστών",
				"The start date should be earlier than the end date": "H ημερομηνία έναρξης πρέπει να προηγείται της ημερομηνίας λήξης.",
				"Edit the full date the course registration period starts.": "Ορίστε την πλήρη ημερομηνία έναρξης των δηλώσεων μαθημάτων",
				"Graduation number index": "Τελευταίος Αριθμός Πτυχίου",
				"Specify the number that will be used to automatically assign a graduation number to the next graduate": "(Τελευταίος Αριθμός Πτυχίου + 1) = (Αριθμός πτυχίου επόμενου πτυχιούχου τμήματος). Αφήστε το πεδίο κενό εάν δεν επιθυμείτε αυτόματο υπολογισμό του αρ. πτυχίου."
			}
		}
	},
	"components": [
		{
			"label": "Tabs",
			"type": "tabs",
			"key": "tabs1",
			"path": "tabs1",
			"input": false,
			"components": [

				{
					"label": "General Information",
					"components": [
						{

							"legend": "General Information",
							"key": "fieldSet",
							"type": "fieldset",
							"input": false,
							"label": "General Information",

							"components": [
								{
									"columns": [
										{
											"components": [
												{
													"label": "Department Name",
													"labelPosition": "top",
													"widget": {
														"type": "input"
													},
													"validate": {
														"required": true
													},
													"key": "name",
													"type": "textfield",
													"input": true,
                          "description": "Edit the department's full name."
												}
											],
											"width": 6
										},
										{
											"components": [
												{
													"label": "Faculty Name",
													"labelPosition": "top",
													"widget": "choicesjs",
													"dataSrc": "url",
													"searchFields": [
														"id"
													],
													"selectThreshold": 0.3,
													"selectValues": "value",
													"key": "facultyName",
													"type": "textfield",
													"input": true,
                          "description": "Edit the name of the faculty this department belongs to."
												}
											],
											"width": 6
										},
										{
											"components": [
												{
													"label": "Other department name",
													"labelPosition": "top",
													"widget": {
														"type": "input"
													},
													"validate": {
														"required": false
													},
													"key": "name2",
													"type": "textfield",
													"input": true,
                          							"description": "Edit the department's other name."
												}
											],
											"width": 6
										},
										{
											"components": [
												{
													"label": "Alternative faculty name",
													"labelPosition": "top",
													"widget": {
														"type": "input"
													},
													"validate": {
														"required": false
													},
													"key": "facultyName2",
													"type": "textfield",
													"input": true,
                          							"description": "Edit the department's faculty alternative name."
												}
											],
											"width": 6
										},
										{
											"components": [
												{
													"label": "Alternative department name",
													"labelPosition": "top",
													"widget": {
														"type": "input"
													},
													"validate": {
														"required": false
													},
													"key": "departmentName2",
													"type": "textfield",
													"input": true,
                          							"description": "Edit the department's alternative name."
												}
											],
											"width": 6
										},
										{
											"components": [
													{
															"label": "Abbreviation",
															"labelPosition": "top",
															"widget": {
																	"type": "input"
															},
															"validate": {
																	"required": true
															},
															"key": "abbreviation",
															"type": "textfield",
															"input": true,
															"description": "This is the abbreviation of the department's name. It should contain up to 20 characters"
													}
											],
											"width": 3
									},
									{
										"components": [
											{
												"label": "Alternative code",
												"labelPosition": "top",
												"widget": {
													"type": "input"
												},
												"validate": {
													"required": true
												},
												"key": "alternativeCode",
												"type": "textfield",
												"input": true
											}
										],
										"width": 3
									}
									],
									"customClass": "text-dark",
									"hideLabel": true,
									"type": "columns",
									"input": false
								},
								{
									"columns": [
										{
											"components": [
												{
													"label": "Semesters",
													"labelPosition": "top",
													"widget": {
														"type": "input"
													},
													"validate": {
														"required": true,
														"integer": true,
														"min": 1,
														"max": 14
													},
													"key": "totalSemesters",
													"type": "number",
													"input": true,
                          "description": "Edit the number of the total semesters in this department. The value cannot be greater than 14."
												}
											],
											"width": 3
										},
										{
											"components": [
												{
													"label": "Study Level",
													"labelPosition": "top",
													"widget": "choicesjs",
													"validate": {
														"required": true
													},

													"dataSrc": "url",
													"data": {
														"url": "StudyLevels",
														"headers": []
													},
													"template": "<span class='d-block pr-5 text-truncate'>{{ item.name }}</span>",
													"selectValues": "value",
													"key": "studyLevel.alternateName",
													"valueProperty": "alternateName",
													"lazyLoad": false,
													"type": "select",
													"input": true,
                          "description": "Select the study level this department offers."
												}
											],
											"width": 3
										}
									],
									"customClass": "text-dark",
									"type": "columns",
									"input": false
								}
							]
						},
						{
							"legend": "Contact Details",
							"key": "fieldSet",
							"type": "fieldset",
							"input": false,
							"label": "Contact Details",
							"components": [
								{
									"columns": [
										{
											"components": [
												{
													"label": "Contact Person",
													"labelPosition": "top",
													"widget": {
														"type": "input"
													},
													"validate": {
														"required": false
													},
													"key": "contactPerson1",
													"type": "textfield",
													"input": true,
                          "description": "Edit the full name of the contact person of this department."
												}
											],
											"width": 3
										},
										{
											"components": [
												{
													"label": "Alternative Contact Person",
													"labelPosition": "top",
													"widget": {
														"type": "input"
													},
													"validate": {
														"required": false
													},
													"key": "contactPerson2",
													"type": "textfield",
													"input": true,
                          "description": "If there is an alternative contact person in this department, Edit the name here. If not, leave this blank. It is an optional field."
												}
											],
											"width": 3
										},
										{
											"components": [
												{
													"label": "Phone Number",
													"labelPosition": "top",
													"spellcheck": true,
													"widget": {
														"type": "input"
													},
													"validate": {
														"required": false
													},
													"key": "phone1",
													"type": "textfield",
													"input": true,
                          "description": "Edit the phone number of this department. Note that it must contain the country code"
												}
											],
											"width": 3
										},
										{
											"components": [
												{
													"label": "Alternative Phone Number",
													"labelPosition": "top",
													"spellcheck": true,
													"widget": {
														"type": "input"
													},
													"validate": {
														"required": false
													},
													"key": "phone2",
													"type": "textfield",
													"input": true,
                          "description": "If there is an alternate phone number in this department, input it here. Note that it must contain the country code"
                        }
											],
											"width": 3
										}
									],
									"customClass": "text-dark",
									"hideLabel": true,
									"type": "columns",
									"input": false
								},
								{
									"columns": [
										{
											"components": [
												{
													"label": "Email",
													"labelPosition": "top",
													"spellcheck": true,
													"widget": {
														"type": "input"
													},
													"validate": {
														"required": false
													},
													"key": "email",
													"type": "email",
													"input": true,
                          "description": "This should have a valid email format eg. user@example.com"
                        }
											],
											"width": 3
										},
										{
											"components": [
												{
													"label": "City",
													"labelPosition": "top",
													"spellcheck": true,
													"widget": {
														"type": "input"
													},
													"validate": {
														"required": false,
														"maxLength": 30
													},
													"key": "city",
													"type": "textfield",
													"input": true,
                          							"description": "Edit the department's city."
                       						 	}
											],
											"width": 3
										},
										{
											"components": [
												{
													"label": "Address",
													"labelPosition": "top",
													"spellcheck": true,
													"widget": {
														"type": "input"
													},
													"validate": {
														"required": false,
														"maxLength": 80
													},
													"key": "address",
													"type": "textfield",
													"input": true,
                          							"description": "Edit the department's address."
                       						 	}
											],
											"width": 3
										},
										{
											"components": [
												{
													"label": "Postal Code",
													"labelPosition": "top",
													"spellcheck": true,
													"widget": {
														"type": "input"
													},
													"validate": {
														"required": false,
														"maxLength": 8
													},
													"key": "postalCode",
													"type": "textfield",
													"input": true,
                          							"description": "Edit the department's postal code."
                       						 	}
											],
											"width": 3
										}
									],
									"customClass": "text-dark",
									"type": "columns",
									"input": false
								}
							]
						}
					]

				},
				{
				  "legend": "Other languages",
				  "key": "fieldSet",
				  "type": "fieldset",
				  "input": false,
				  "label": "Other languages",
				  "components": [{
					"label": "",
					"hideLabel": true,
					"key": "locales",
					"type": "datagrid",
					"disableAddingRemovingRows": true,
					"input": true,
					"customClass": "fix-panel-for-locales border-0",
					"components": [{
					  "collapsible": false,
					  "hideLabel": true,
					  "key": "panel",
					  "type": "panel",
					  "title": "",
					  "hideTitle": true,
					  "input": false,
					  "tableView": false,
					  "components": [
						{
							"content": "<div class=\"h4 text-secondary border-bottom pb-3 border-gray-200 font-weight-normal\">{{instance.t(row.inLanguage)}}</div>",
							"refreshOnChange": false,
							"key": "html",
							"type": "htmlelement",
							"input": false,
							"tableView": false,
							"customConditional": "show = row.inLanguage && row.inLanguage.length"
						},
						{
							"label": "Department Name",
							"tableView": true,
							"key": "name",
							"type": "textfield",
							"input": true
						},
						{
							"label": "Faculty Name",
							"tableView": true,
							"key": "facultyName",
							"type": "textfield",
							"input": true
						},
						{
							"label": "Contact Person",
							"tableView": true,
							"key": "contactPerson1",
							"type": "textfield",
							"input": true
						},
						{
						  "label": "Alternative Contact Person",
						  "tableView": true,
						  "key": "contactPerson2",
						  "type": "textfield",
						  "input": true
						},
						{
						  "label": "Notes",
						  "tableView": true,
						  "key": "notes",
						  "type": "textarea",
						  "input": true
						}
					  ]
					}]
				  }]

				},
				{
					"label": "Registration Information",
					"components": [
						{
							"label": "Columns",
							"customClass": "pb-4",
							"columns": [
								{
									"components": [
										{
											"label": "Active Registration Period",
											"labelPosition": "top",
											"validate": {
												"required": false
											},
											"key": "isRegistrationPeriod",
											"type": "checkbox",
											"input": true,
                      "description": "If checked, students may be able to submit course registrations."
										}
									],
									"width": 4
								},
								{
									"components": [
										{
											"label": "Allow specialty selection",
											"labelPosition": "top",
											"validate": {
												"required": false
											},
											"key": "allowSpecialtySelection",
											"type": "checkbox",
											"input": true,
                      						"description": "If checked, students may be able to select a specialty, if their study program allows it."
										}
									],
									"width": 4
								},
								{
									"components": [
										{
											"label": "Check semester rules of study program",
											"labelPosition": "top",
											"validate": {
												"required": false
											},
											"key": "checkSemesterRules",
											"type": "checkbox",
											"input": true,
                      						"description": "Check semester rules of study program during course registration"
										}
									],
									"width": 4
								},
								{
									"components": [
										{
											"label": "Check custom rules",
											"labelPosition": "top",
											"validate": {
												"required": false
											},
											"key": "checkCustomRules",
											"type": "checkbox",
											"input": true,
                      						"description": "Check custom requirements that consider custom rules that apply for the department"
										}
									],
									"width": 4
								}
							],
							"key": "columns",
							"type": "columns",
							"input": false
						},
						{
							"label": "Columns",
							"columns": [
								{
									"components": [
										{
											"label": "Registration Period Start",
											"labelPosition": "top",
											"format": "yyyy-MM-dd, HH:mm",
											"enableTime": true,
											"suffix": "",
											"widget": {
												"type": "calendar",
												"time_24hr": true
											},
											"timePicker": {
												"showMeridian": false
											},
											"customOptions": {
												"defaultHour": 0
											},
											"validate": {
												"required": false,
												"custom": "valid = !!data.registrationPeriodStart && !!data.registrationPeriodEnd ? new Date(data.registrationPeriodStart).getTime() - new Date(data.registrationPeriodEnd).setHours(23,59,59,59) <= 0: true;",
												"customMessage": "The start date should be earlier than the end date"
											},
											"key": "registrationPeriodStart",
											"type": "datetime",
											"input": true,
                      "description": "Edit the full date the course registration period starts."
										}
									],
									"width": 4
								},
								{
									"components": [
										{
											"label": "Registration Period End",
											"labelPosition": "top",
											"format": "yyyy-MM-dd",
											"enableTime": false,
											"widget": {
												"type": "calendar"
											},
											"validate": {
												"required": false
											},
											"key": "registrationPeriodEnd",
											"type": "datetime",
											"input": true,
                      "description": "Edit the full date the course registration period ends."
										}
									],
									"width": 4
								}
							],
							"key": "columns",
							"type": "columns",
							"input": false
						},
						{
							"label": "Registration Period Notes",
							"autoExpand": false,
							"spellcheck": true,
							"tableView": true,
							"validate": {
									"unique": false,
									"multiple": false
							},
							"key": "registrationPeriodNotes",
							"type": "textarea",
							"wysiwyg": true,
							"rows": 25,
							"input": true,
              "description": "Add some notes for the course registration. They should be registration guidelines for the students to read, or anything you want to clarify on the registration period or process"
						}
					]
				},
				{
					"label": "Other properties",
					"components": [
            {
              "legend": "Current academic year and period",
              "key": "fieldSet",
              "type": "fieldset",
              "input": false,
              "label": "Current academic year and period",
              "components": [
                {
                  "type": "columns",
                  "input": false,
                  "columns": [
                    {
                      "components": [
                        {
                          "label": "Columns",
                          "columns": [
                            {
                              "components": [
                                {
                                  "label": "Current Academic Period",
                                  "labelPosition": "top",
                                  "widget": "choicesjs",
                                  "dataSrc": "url",
                                  "data": {
                                    "url": "AcademicPeriods?$orderby=name desc",
                                    "headers": []
                                  },
                                  "validate": {
                                    "required": true
                                  },
                                  "searchFields": [
                                    "value.id",
                                    "value.alternateName"
                                  ],
                                  "limit": 15,
                                  "template": "<span class='col-4 text-truncate'>{{ item.name }}</span>",
                                  "selectValues": "value",
                                  "key": "currentPeriod",
                                  "searchEnabled": true,
                                  "selectThreshold": 0.3,
                                  "type": "select",
                                  "input": true,
                                  "lazyLoad": true
                                }
                              ],
                              "width": 6
                            },
                            {
                              "components": [
                                {
                                  "label": "Current Academic Year",
                                  "labelPosition": "top",
                                  "widget": "choicesjs",
                                  "dataSrc": "url",
                                  "searchFields": [
                                    "value.id",
                                    "value.alternateName"
                                  ],
                                  "data": {
                                    "url": "AcademicYears?$top={{limit}}&$skip={{skip}}&$orderby=name desc",
                                    "headers": []
                                  },
                                  "validate": {
                                    "required": true
                                  },
                                  "limit": 15,
                                  "template": "<span class='col-4 text-truncate'>{{ item.name }}</span>",
                                  "selectValues": "value",
                                  "key": "currentYear",
                                  "searchEnabled": true,
                                  "selectThreshold": 0.3,
                                  "type": "select",
                                  "input": true,
                                  "lazyLoad": true
                                }
                              ],
                              "width": 6
                            }
                          ],
                          "key": "columns",
                          "type": "columns",
                          "input": false
                        }
                      ]
                    }
                  ]
                }
              ]
            },
            {
							"legend": "Exam period participation settings",
							"key": "fieldSet",
							"type": "fieldset",
							"input": false,
							"label": "Exam period participation settings",
							"components": [
								{
									"type": "columns",
									"input": false,
									"columns": [
										{
											"components": [
												{
													"label": "Exam year",
													"labelPosition": "top",
													"widget": "choicesjs",
													"validate": {
														"required": false
													},
													"dataSrc": "url",
													"data": {
														"url": "AcademicYears?$top=-1&$select=id,name&$orderby=id desc"
													},
													"template": "<span class='d-block pr-5 text-truncate'>{{ item.name }}</span>",
													"selectValues": "value",
													"key": "departmentConfiguration.examYear",
													"valueProperty": "id",
													"lazyLoad": false,
													"type": "select",
													"input": true,
													"description": "Set the current year for exam participation applications"
												}
											],
											"width": 6
										},
										{
											"components": [
												{
													"label": "Exam period",
													"labelPosition": "top",
													"widget": "choicesjs",
													"validate": {
														"required": false
													},
													"dataSrc": "url",
													"data": {
														"url": "ExamPeriods?$top=-1&$select=id,name"
													},
													"template": "<span class='d-block pr-5 text-truncate'>{{ item.name }}</span>",
													"selectValues": "value",
													"key": "departmentConfiguration.examPeriod",
													"valueProperty": "id",
													"lazyLoad": false,
													"type": "select",
													"input": true,
													"description": "Set the current period for exam participation applications"
												}
											],
											"width": 6
										},
										{
											"components": [
												{
													"label": "Valid from",
													"description": "Set the start date of accepting applications for exam participations",
													"enableTime": false,
													"suffix": "",
													"widget": {
														"type": "calendar",
														"useLocaleSettings": true
													},
													"validate": {
														"required": false,
														"custom": "valid = !!data.departmentConfiguration.examParticipationPeriodStart && !!data.departmentConfiguration.examParticipationPeriodEnd ? new Date(data.departmentConfiguration.examParticipationPeriodStart).getTime() - new Date(data.departmentConfiguration.examParticipationPeriodEnd).getTime() <= 0: true;",
														"customMessage": "The start date should be earlier than the end date"
													},
													"key": "departmentConfiguration.examParticipationPeriodStart",
													"type": "datetime",
													"input": true
												}
											],
											"width": 6
										},
										{
											"components": [
												{
													"label": "Valid to",
													"description": "Set the end date of the period that department will accept applications for exam participations",
													"enableTime": false,
													"suffix": "",
													"widget": {
														"type": "calendar",
														"useLocaleSettings": true
													},
													"validate": {
														"required": false
													},
													"key": "departmentConfiguration.examParticipationPeriodEnd",
													"type": "datetime",
													"input": true
												}
											],
											"width": 6
										}
									]
								}
							]
						},
						{
							"legend": "Grade submissions settings",
							"key": "fieldSet",
							"type": "fieldset",
							"input": false,
							"label": "Grade submissions settings",
							"components": [
								{
									"type": "columns",
									"input": false,
									"columns": [
										{
											"components": [
												{
													"label": "Grade submission period start",
													"description": "Set the start date of the grade submissions period",
													"enableTime": false,
													"suffix": "",
													"widget": {
														"type": "calendar",
														"useLocaleSettings": true
													},
													"validate": {
														"required": false,
														"custom": "valid = !!data.departmentConfiguration.gradeSubmissionPeriodStart && !!data.departmentConfiguration.gradeSubmissionPeriodEnd ? new Date(data.departmentConfiguration.gradeSubmissionPeriodStart).getTime() - new Date(data.departmentConfiguration.gradeSubmissionPeriodEnd).getTime() <= 0: true;",
														"customMessage": "The start date should be earlier than the end date"
													  },
													"key": "departmentConfiguration.gradeSubmissionPeriodStart",
													"type": "datetime",
													"input": true
												}
											],
											"width": 6
										},
										{
											"components": [
												{
													"label": "Grade submission period end",
													"description": "Set the end date of the grade submissions period",
													"enableTime": false,
													"suffix": "",
													"widget": {
														"type": "calendar",
														"useLocaleSettings": true
													},
													"validate": {
														"required": false
													},
													"key": "departmentConfiguration.gradeSubmissionPeriodEnd",
													"type": "datetime",
													"input": true
												}
											],
											"width": 6
										}
									]
								}
							]
						},
						{
							"legend": "Identifier and graduation number calculation settings",
							"key": "fieldSet",
							"type": "fieldset",
							"input": false,
							"label": "Exam period participation settings",
							"components": [
								{
									"type": "columns",
									"input": false,
									"columns": [
										{
											"components": [
												{
													"label": "Student identifier format",
													"labelPosition": "top",
													"widget": {
														"type": "input"
													},
													"validate": {
														"required": false,
														"maxLength": 50
													},
													"key": "studentIdentifierFormat",
													"type": "textfield",
													"input": true,
													"description": "The format should contain one or more available format elements, separated by \";\". After each format element, a text or a number can be inserted, if the element supports it. (e.g. I000)"
												}
											],
											"width": 6
										},
										{
											"components": [
												{
													"label": "Student identifier index",
													"labelPosition": "top",
													"widget": {
														"type": "input"
													},
													"validate": {
														"required": false,
														"integer": true
													},
													"key": "studentIdentifierIndex",
													"type": "number",
													"input": true,
													"description": "The student identifier index is very often used in combination with the student identifier format for a new identifier calculation. This number is automatically incremented every time a new identifier is created."
												}
											],
											"width": 6
										},
										{
											"components": [
												{
													"label": "Student unique identifier format",
													"labelPosition": "top",
													"widget": {
														"type": "input"
													},
													"validate": {
														"required": false,
														"maxLength": 50
													},
													"key": "departmentConfiguration.studentUniqueIdentifierFormat",
													"type": "textfield",
													"input": true,
													"description": "The format should contain one or more available format elements, separated by \";\". After each format element, a text or a number can be inserted, if the element supports it. (e.g. T12311;R10;M10)"
												}
											],
											"width": 6
										},
										{
											"components": [
												{
													"label": "Student unique identifier index",
													"labelPosition": "top",
													"widget": {
														"type": "input"
													},
													"validate": {
														"required": false,
														"integer": true
													},
													"key": "departmentConfiguration.studentUniqueIdentifierIndex",
													"type": "number",
													"input": true,
													"description": "The student unique identifier index can be used in combination with the student unique identifier format for a new identifier calculation. This number, if it is defined, is automatically incremented every time a new unique identifier is created."
												}
											],
											"width": 6
										},
										{
											"components": [
												{
													"label": "Graduation number index",
													"labelPosition": "top",
													"mask": false,
													"tableView": false,
													"delimiter": false,
													"requireDecimal": false,
													"inputFormat": "plain",
													"validate": {
														"required": false,
														"integer": true,
														"min": 0
													},
													"calculateValue": "value = value == null ? '' : value",
													"key": "graduationNumberIndex",
													"type": "number",
													"input": true,
													"persistent": true,
													"description": "Specify the number that will be used to automatically assign a graduation number to the next graduate"
												}
											],
											"width": 6
										}
									]
								}
							]
						},
						{
							"legend": "User creation settings",
							"key": "fieldSet",
							"type": "fieldset",
							"input": false,
							"label": "User creation settings",
							"components": [
								{
									"type": "columns",
									"input": false,
									"columns": [
										{
											"components": [
												{
													"label": "Student username format",
													"labelPosition": "top",
													"widget": {
														"type": "input"
													},
													"validate": {
														"required": false,
														"pattern": "^\\S*$",
														"customMessage": "The format cannot contain spaces.",
														"maxLength": 50
													},
													"key": "departmentConfiguration.studentUsernameFormat",
													"type": "textfield",
													"input": true,
													"description": "The format should contain one or more available format elements, separated by \";\". After each format element, a text or a number can be inserted, if the element supports it. (e.g. F4;G4)"
												},
												{
													"label": "Available student username format elements...",
													"action": "custom",
													"customClass": "d-inline-block",
													"showValidations": false,
													"theme": "info",
													"tableView": false,
													"key": "submit1",
													"type": "button",
													"custom": "$.get('assets/forms/LocalDepartments/studentUsernameFormat.' + instance.i18next.language  + '.html', function( data ) { if ($('#studentUsernameFormat').length === 0) { $(document.body).append(data) }; $('#studentUsernameFormat').modal('show');});",
													"input": true
												}
											],
											"width": 6
										},
										{
											"components": [
												{
													"label": "Instructor username format",
													"labelPosition": "top",
													"widget": {
														"type": "input"
													},
													"validate": {
														"required": false,
														"pattern": "^\\S*$",
														"customMessage": "The format cannot contain spaces.",
														"maxLength": 50
													},
													"key": "departmentConfiguration.instructorUsernameFormat",
													"type": "textfield",
													"input": true,
													"description": "The format should contain one or more available format elements, separated by \";\". After each format element, a text or a number can be inserted, if the element supports it. (e.g. F4;G4)"
												},
												{
													"label": "Available instructor username format elements...",
													"action": "custom",
													"customClass": "d-inline-block",
													"showValidations": false,
													"theme": "info",
													"tableView": false,
													"key": "submit1",
													"type": "button",
													"custom": "$.get('assets/forms/LocalDepartments/instructorUsernameFormat.' + instance.i18next.language  + '.html', function( data ) { if ($('#instructorUsernameFormat').length === 0) { $(document.body).append(data) }; $('#instructorUsernameFormat').modal('show');});",
													"input": true
												}
											],
											"width": 6
										},
										{
											"components": [
												{
													"label": "Student username index",
													"labelPosition": "top",
													"widget": {
														"type": "input"
													},
													"validate": {
														"required": false,
														"integer": true
													},
													"key": "departmentConfiguration.studentUsernameIndex",
													"type": "number",
													"input": true,
													"description": "The student username index can be used in combination with the student username format for a new identifier calculation. This number, if it is defined, is automatically incremented every time a new student username is created."
												}
											],
											"width": 4
										}
									]
								}
							]
						}
					]
				}
			]
		},
		{
			"type": "button",
			"label": "Submit",
			"key": "submit",
			"disableOnInvalid": true,
			"input": true
		}

	]
}
