{
  "model": "GraduationRequestActions",
  "title": "Graduation Requests",
  "searchExpression": "indexof(student/studentIdentifier, '${text}') ge 0 or indexof(student/person/familyName, '${text}') ge 0 or indexof(student/person/givenName, '${text}') ge 0 or indexof(student/studyProgram/name, '${text}') ge 0 or indexof(student/studentStatus/name, '${text}') ge 0)",
  "selectable": true,
  "multipleSelect": true,
  "columns": [
    {
      "name": "student/id",
      "property": "studentId",
      "hidden": true
    },
    {
      "name": "id",
      "property": "id",
      "formatter": "ActionLinkFormatter",
      "actions": [
        {
          "title": "Graduations.PreviewRequest",
          "href": "#/requests/${id}/edit"
        },
        {
          "title": "Graduations.PreviewStudent",
          "href": "#/students/${studentId}/dashboard/overview"
        }
      ]
    },
    {
      "name": "graduationEvent/id",
      "property": "graduationId",
      "hidden": true
    },
    {
      "name": "student/person/familyName",
      "property": "familyName",
      "hidden": false,
      "title": "Students.fullName",
      "formatter": "TemplateFormatter",
      "formatString": "${familyName} ${givenName}"
    },
    {
      "name": "student/person/givenName",
      "property": "givenName",
      "title": "Students.fullName",
      "hidden":true
    },
    {
      "name": "student/studentIdentifier",
      "property": "studentIdentifier",
      "title": "Students.studentIdentifier"
    },
    {
      "name": "student/studyProgram/name",
      "property": "studyProgram",
      "title": "Students.studyProgram"
    },
    {
      "name": "student/lastObligationDate",
      "property": "lastObligationDate",
      "title": "Graduations.LastObligationDate",
      "formatter": "DateTimeFormatter",
      "formatString": "shortDate"
    },
    {
      "name":"student/declaration/declaredDate",
      "property": "declaredDate",
      "title":"Students.DeclaredDate",
      "formatter": "DateTimeFormatter",
      "formatString": "shortDate"
    },
    {
      "name":"student/declaration/declaredYear/alternateName",
      "property": "declaredYear",
      "title":"Students.AcademicYear"
    },
    {
      "name":"student/declaration/declaredPeriod/alternateName",
      "property": "declaredPeriod",
      "title":"Students.AcademicPeriod",
      "formatter": "TranslationFormatter",
      "formatString": "Periods.${value}"
    },
    {
      "name":"student/declaration/graduationGradeAdjusted",
      "property": "graduationGradeAdjusted",
      "title":"Students.GraduationGrade",
      "formatters": [
        {
          "formatter": "TemplateFormatter",
          "formatString": "${graduationGradeAdjusted != null ? graduationGradeAdjusted : '-'}"
        },
        {
          "formatter": "NgClassFormatter",
          "formatOptions": {
            "ngClass": {
              "text-success font-lg": "true"
            }
          }
        }
      ]
    },
    {
      "name": "student/inscriptionDate",
      "property": "inscriptionDate",
      "hidden": true
    },
    {
      "name": "graduationEvent/startDate",
      "property": "eventStartDate",
      "hidden": true
    }
  ],
  "defaults": {
    "orderBy": "student/person/familyName"
  },
  "criteria": [
    {
      "name": "studyProgram",
      "filter": "(indexof(student/studyProgram/name, '${value}') ge 0 )",
      "type": "text"
    },
    {
      "name": "studentName",
      "filter": "(indexof(student/person/familyName, '${value}') ge 0 or indexof(student/studentIdentifier, '${value}') ge 0)",
      "type": "text"
    },
    {
      "name": "studentIdentifier",
      "filter": "(indexof(student/studentIdentifier, '${value}') ge 0 )",
      "type": "text"
    },
    {
      "name": "graduationEventId",
      "filter": "(graduationEvent eq '${value}')",
      "type": "text"
    }
  ]
}
