{
  "settings": {
    "i18n": {
    }
  },
  "components": [
    {
      "label": "refersTo",
      "hidden": true,
      "disabled": true,
      "tableView": true,
      "defaultValue": "RegisteredCourse",
      "clearOnHide": false,
      "key": "refersTo",
      "type": "textfield",
      "input": true
    },
    {
      "legend": "RegisteredCourseRuleTitle",
      "type": "fieldset",
      "components": [
        {
          "label": "HTML",
          "content": "<p class=\"text-secondary\">{{instance.t('RegisteredCourseRuleDescription')}}</p>",
          "refreshOnChange": false,
          "key": "html",
          "type": "htmlelement",
          "input": false,
          "tableView": false,
          "customConditional": "show = (data.$state != 4)"
        },
        {
          "columns": [
            {
              "components": [
                {
                  "label": "Courses",
                  "dataSrc": "url",
                  "customConditional": "show = !!(data.target && data.target.department);",
                  "data": {
                    "values": [],
                    "url": "/Courses?$top=-1&$skip=0&$select=id,name,displayCode&$filter=department eq {{data.target.department}}",
                    "headers": []
                  },
                  "template": "<span class='text-truncate'>[{{item.displayCode}}] - {{ item.name }}</span>",
                  "selectValues": "value",
                  "refreshOnChange": false,
                  "tableView": false,
                  "key": "courses",
                  "type": "select",
                  "multiple": true,
                  "input": true
                }
              ],
              "width": 12,
              "offset": 0,
              "push": 0,
              "pull": 0,
              "size": "md"
            },
            {
              "components": [
                {
                  "label": "RuleCheckType",
                  "labelPosition": "top",
                  "widget": "choicesjs",
                  "dataSrc": "url",
                  "validate": {
                    "required": true
                  },
                  "data": {
                    "url": "RuleCheckTypes",
                    "headers": []
                  },
                  "template": "<span class='d-block pr-5 text-truncate'>{{ item.alternateName }}</span>",
                  "selectValues": "value",
                  "key": "checkType.id",
                  "defaultValue": "4",
                  "valueProperty": "id",
                  "lazyLoad": false,
                  "type": "select",
                  "input": true
                }
              ],
              "width": 6,
              "offset": 0,
              "push": 0,
              "pull": 0,
              "size": "md"
            },
            {
              "components": [
                {
                  "label": "TotalCourses",
                  "tableView": true,
                  "validate": {
                    "required": true
                  },
                  "key": "totalCourses",
                  "type": "number",
                  "input": true,
                  "hideOnChildrenHidden": false,
                  "clearOnHide": true,
                  "defaultValue": 1
                }
              ],
              "size": "md",
              "width": 3,
              "offset": 0,
              "push": 0,
              "pull": 0
            }
          ],
          "customClass": "text-dark",
          "hideLabel": true,
          "type": "columns",
          "input": false
        }
      ]
    },
    {
      "type": "button",
      "action": "event",
      "label": "RemoveRule",
      "event": "remove",
      "key": "remove",
      "theme": "danger",
      "disableOnInvalid": false,
      "input": true,
      "tableView": false
    }
  ]
}
