{
  "model": "Courses",
  "components": [
    {
      "type": "fieldset",
      "legend": "Course info",
      "components": [
        {
          "columns": [
            {
              "components": [
                {
                  "label": "ID",
                  "labelPosition": "top",
                  "widget": {
                    "type": "input"
                  },
                  "validate": {
                    "required": true
                  },
                  "key": "id",
                  "type": "textfield",
                  "input": true,
                  "disabled": false
                }
              ],
              "width": 6
            },
            {
              "components": [
                {
                  "label": "Course display code",
                  "labelPosition": "top",
                  "widget": {
                    "type": "input"
                  },
                  "validate": {
                    "required": true
                  },
                  "key": "displayCode",
                  "type": "textfield",
                  "input": true,
                  "disabled": false
                }
              ],
              "width": 6
            },
            {
              "components": [
                {
                  "label": "Course Name",
                  "labelPosition": "top",
                  "widget": {
                    "type": "input"
                  },
                  "validate": {
                    "required": true
                  },
                  "key": "name",
                  "type": "textarea",
                  "input": true
                }
              ],
              "width": 12
            },
            {
              "components": [
                {
                  "label": "Subtitle",
                  "labelPosition": "top",
                  "widget": {
                    "type": "input"
                  },
                  "validate": {
                    "required": false
                  },
                  "key": "subtitle",
                  "type": "textfield",
                  "input": true
                }
              ],
              "width": 6
            },
            {
              "components": [
                {
                  "label": "Enabled",
                  "labelPosition": "top",
                  "widget": "choicesjs",
                  "searchEnabled": false,
                  "data": {
                    "values": [
                      {
                        "label": "No",
                        "value": "0"
                      },
                      {
                        "label": "Yes",
                        "value": "1"
                      }
                    ]
                  },
                  "dataType": "string",
                  "validate": {
                    "required": true
                  },
                  "selectThreshold": 0.3,
                  "key": "isEnabled",
                  "selectValues": "value",
                  "type": "select",
                  "input": true,
                  "defaultValue" : "1"
                }
              ],
              "width": 3
            },
            {
              "components": [
                {
                  "label": "Units",
                  "labelPosition": "top",
                  "widget": {
                    "type": "input"
                  },
                  "validate": {
                    "required": false,
                    "min": 0
                  },
                  "key": "units",
                  "type": "number",
                  "input": true
                }
              ],
              "width": 3
            },
            {
              "components": [
                {
                  "label": "ECTS",
                  "labelPosition": "top",
                  "widget": {
                    "type": "input"
                  },
                  "validate": {
                    "required": false,
                    "min": 0
                  },
                  "key": "ects",
                  "type": "number",
                  "input": true
                }
              ],
              "width": 3
            },
            {
              "components": [
                {
                  "label": "Shared",
                  "labelPosition": "top",
                  "widget": "choicesjs",
                  "tableView" : true,
                  "data": {
                    "values": [
                      {
                        "label": "No",
                        "value": "0"
                      },
                      {
                        "label": "Yes",
                        "value": "1"
                      }
                    ]
                  },
                  "validate": {
                    "required": true
                  },
                  "dataType": "string",
                  "selectThreshold": 0.3,
                  "key": "isShared",
                  "type": "select",
                  "input": true,
                  "defaultValue": "0"
                }
              ],
              "width": 3
            },
            {
              "components": [
                {
                  "label": "Local",
                  "labelPosition": "top",
                  "widget": "choicesjs",
                  "searchEnabled": false,
                  "data": {
                    "values": [
                      {
                        "label": "No",
                        "value": "0"
                      },
                      {
                        "label": "Yes",
                        "value": "1"
                      }
                    ]
                  },
                  "dataType": "string",
                  "validate": {
                    "required": true
                  },
                  "selectThreshold": 0.3,
                  "key": "isLocal",
                  "type": "select",
                  "input": true,
                  "defaultValue": "1"
                }
              ],
              "width": 3
            },
            {
              "components": [
                {
                  "label": "Grade Scale",
                  "labelPosition": "top",
                  "widget": "choicesjs",
                  "searchEnabled": true,
                  "dataSrc": "url",
                  "data": {
                    "values": [],
                    "url": "/GradeScales?$top=-1&$skip=0&$select=id,name"
                  },
                  "validate": {
                    "required": true
                  },
                  "selectThreshold": 0.3,
                  "lazyLoad": false,
                  "template": "{{ item.name }}",
                  "valueProperty": "id",
                  "selectValues": "value",
                  "key": "gradeScale",
                  "type": "select",
                  "input": true
                }
              ],
              "width": 3
            },
            {
              "components": [
                {
                  "label": "Course URL",
                  "labelPosition": "top",
                  "widget": {
                    "type": "input"
                  },
                  "validate": {
                    "required": false
                  },
                  "key": "courseUrl",
                  "type": "url",
                  "input": true
                }
              ],
              "width": 3
            },
            {
              "components": [
                {
                  "label": "Calculated In Registration",
                  "labelPosition": "top",
                  "widget": "choicesjs",
                  "searchEnabled": false,
                  "data": {
                    "values": [
                      {
                        "label": "No",
                        "value": "0"
                      },
                      {
                        "label": "Yes",
                        "value": "1"
                      }
                    ]
                  },
                  "validate": {
                    "required": true
                  },
                  "selectThreshold": 0.3,
                  "key": "calculatedInRegistration",
                  "type": "select",
                  "input": true,
                  "defaultValue": "1"
                }
              ],
              "width": 3
            },
            {
              "components": [
                {
                  "label": "Calculated In Scholarship",
                  "labelPosition": "top",
                  "widget": "choicesjs",
                  "searchEnabled": false,
                  "data": {
                    "values": [
                      {
                        "label": "No",
                        "value": "0"
                      },
                      {
                        "label": "Yes",
                        "value": "1"
                      }
                    ]
                  },
                  "validate": {
                    "required": true
                  },
                  "selectThreshold": 0.3,
                  "key": "isCalculatedInScholarship",
                  "type": "select",
                  "input": true,
                  "defaultValue": "1"
                }
              ],
              "width": 3
            },
            {
              "components": [
                {
                  "label": "Notes",
                  "labelPosition": "top",
                  "widget": {
                    "type": "input"
                  },
                  "validate": {
                    "required": false
                  },
                  "key": "notes",
                  "type": "textarea",
                  "input": true
                }
              ],
              "width": 12
            }
          ],
          "customClass": "text-dark",
          "hideLabel": true,
          "type": "columns",
          "input": false
        }
      ]
    },
    {
      "legend": "Details",
      "type": "fieldset",
      "components": [
        {
          "columns": [
            {
              "components": [
                {
                  "label": "Department",
                  "widget": "choicesjs",
                  "dataSrc": "url",
                  "defaultValue": "",
                  "labelPosition": "top",
                  "data": {
                    "url": "/LocalDepartments?$top=1&$skip=0&$select=id,name&$filter=id eq {{data.department}}",
                    "headers": []
                  },
                  "validate": {
                    "required": true
                  },
                  "valueProperty": "id",
                  "lazyLoad": false,
                  "dataType": "string",
                  "template": "{{ item.name }}",
                  "selectThreshold": 0.3,
                  "key": "department",
                  "type": "select",
                  "selectValues": "value",
                  "input": true,
                  "disabled" : true
                }
              ],
              "width": 6
            },
            {
              "components": [
                {
                  "label": "Instructor",
                  "widget": "choicesjs",
                  "dataSrc": "url",
                  "defaultValue": "",
                  "labelPosition": "top",
                  "data": {
                    "values": [],
                    "url": "/Instructors?$top={{limit}}&$skip={{skip}}&$select=id,familyName,givenName&$filter=indexof(familyName, '{{encodeURIComponent(search||'')}}') ge 0",
                    "headers": []
                  },
                  "lazyLoad": true,
                  "searchField": "search",
                  "searchEnabled": true,
                  "selectThreshold": 1,
                  "limit": 20,
                  "validate": {
                    "required": true
                  },
                  "valueProperty": "id",
                  "dataType": "string",
                  "template": "{{ item.familyName }} {{ item.givenName }}",
                  "key": "instructor",
                  "type": "select",
                  "selectValues": "value",
                  "input": true
                }
              ],
              "width": 6
            },
            {
              "components": [
                {
                  "label": "Knowledge Area",
                  "widget": "choicesjs",
                  "dataSrc": "url",
                  "defaultValue": "",
                  "labelPosition": "top",
                  "data": {
                    "values": [],
                    "url": "/CourseAreas?$top=-1&$skip=0&$select=id,name&$filter=department eq {{data.department}}",
                    "headers": []
                  },
                  "validate": {
                    "required": false
                  },
                  "valueProperty": "id",
                  "lazyLoad": false,
                  "dataType": "string",
                  "template": "{{ item.name }}",
                  "selectThreshold": 0.3,
                  "key": "courseArea",
                  "type": "select",
                  "selectValues": "value",
                  "input": true
                }
              ],
              "width": 6
            },
            {
              "components": [
                {
                  "label": "Sector",
                  "widget": "choicesjs",
                  "dataSrc": "url",
                  "defaultValue": "",
                  "labelPosition": "top",
                  "data": {
                    "values": [],
                    "url": "/CourseSectors?$top=-1&$skip=0&$select=id,name&$filter=department eq {{data.department}}",
                    "headers": []
                  },
                  "validate": {
                    "required": false
                  },
                  "valueProperty": "id",
                  "lazyLoad": false,
                  "dataType": "string",
                  "template": "{{ item.name }}",
                  "selectThreshold": 0.3,
                  "key": "courseSector",
                  "type": "select",
                  "selectValues": "value",
                  "input": true
                }
              ],
              "width": 3
            },
            {
              "components": [
                {
                  "label": "Course Structure Type",
                  "labelPosition": "top",
                  "widget": "choicesjs",
                  "searchEnabled": false,
                  "dataSrc": "url",
                  "data": {
                    "values": [],
                    "url": "/CourseStructureTypes?$top=-1&$skip=0&$select=id,name"
                  },
                  "dataType": "string",
                  "validate": {
                    "required": true
                  },
                  "selectThreshold": 0.3,
                  "lazyLoad": false,
                  "template": "{{ item.name }}",
                  "valueProperty": "id",
                  "selectValues": "value",
                  "defaultValue" : "1",
                  "key": "courseStructureType",
                  "type": "select",
                  "input": true,
                  "disabled" : true
                }
              ],
              "width": 3
            },
            {
              "components": [
                {
                  "label": "State",
                  "labelPosition": "top",
                  "widget": {
                    "type": "custom"
                  },
                  "key": "$state",
                  "type": "number",
                  "input": true,
                  "disabled": false,
                  "clearOnHide": false,
                  "lazyLoad": true,
                  "hidden": true
                }
              ],
              "width": 3
            },
            {
              "components": [
                {
                  "label": "MaxNumberOfRemarking",
                  "labelPosition": "top",
                  "widget": {
                    "type": "input"
                  },
                  "dataType": "string",
                  "key": "maxNumberOfRemarking",
                  "type": "textfield",
                  "input": true,
                  "disabled": false,
                  "tableView" : true,
                  "hidden": true
                }
              ],
              "width": 3
            }
          ],
          "customClass": "text-dark",
          "hideLabel": true,
          "type": "columns",
          "input": false
        }
      ]
    },
    {
      "type": "button",
      "label": "Submit",
      "key": "submit",
      "disableOnInvalid": true,
      "input": true
    }
  ]
}
